// Jest Snapshot v1, https://goo.gl/fbAQLP

exports[`Тестирование RecoverLogin Тестируем RecoverLogin CONFIRM-STAGE with incorrect code 1`] = `
<Provider
  store={
    Object {
      "dispatch": [Function],
      "getState": [Function],
      "replaceReducer": [Function],
      "subscribe": [Function],
      Symbol(observable): [Function],
    }
  }
>
  <RecoverLogin>
    <ConfirmStage
      setStep={[Function]}
    >
      <ReactFinalForm
        onSubmit={[Function]}
        render={[Function]}
        subscription={
          Object {
            "submitting": true,
          }
        }
        validate={[Function]}
      >
        <form
          className="form"
          onSubmit={[Function]}
        >
          <h3
            className="formTitle"
          >
            Подтверждение
          </h3>
          <p
            className="formText"
          >
            Проверьте почту и введите код подтверждения
          </p>
          <FormSpy
            render={[Function]}
          >
            <ForwardRef(Field)
              component={[Function]}
              disabled={false}
              id="code-input"
              inputRef={
                Object {
                  "current": <input
                    class="input"
                    id="code-input"
                    placeholder="Введите код"
                    type="number"
                    value=""
                  />,
                }
              }
              label="Код:"
              name="code"
              placeholder="Введите код"
              type="number"
            >
              <LabeledInput
                disabled={false}
                id="code-input"
                input={
                  Object {
                    "checked": undefined,
                    "name": "code",
                    "onBlur": [Function],
                    "onChange": [Function],
                    "onFocus": [Function],
                    "type": "number",
                    "value": 1111,
                  }
                }
                inputRef={
                  Object {
                    "current": <input
                      class="input"
                      id="code-input"
                      placeholder="Введите код"
                      type="number"
                      value=""
                    />,
                  }
                }
                label="Код:"
                meta={
                  Object {
                    "active": false,
                    "data": Object {},
                    "dirty": true,
                    "dirtySinceLastSubmit": false,
                    "error": undefined,
                    "initial": undefined,
                    "invalid": false,
                    "length": undefined,
                    "modified": true,
                    "modifiedSinceLastSubmit": false,
                    "pristine": false,
                    "submitError": undefined,
                    "submitFailed": false,
                    "submitSucceeded": false,
                    "submitting": false,
                    "touched": false,
                    "valid": true,
                    "validating": false,
                    "visited": false,
                  }
                }
                placeholder="Введите код"
                type="text"
              >
                <div
                  className="wrapper"
                >
                  <label
                    className="label"
                    htmlFor="code-input"
                  >
                    Код:
                  </label>
                  <input
                    className="input"
                    disabled={false}
                    id="code-input"
                    onBlur={[Function]}
                    onChange={[Function]}
                    onFocus={[Function]}
                    placeholder="Введите код"
                    type="number"
                    value="1111"
                  />
                </div>
              </LabeledInput>
            </ForwardRef(Field)>
          </FormSpy>
          <FormSpy
            render={[Function]}
            subscription={
              Object {
                "errors": true,
                "pristine": true,
                "submitting": true,
              }
            }
          >
            <Button
              className="buttonOffset"
              colorScheme="green"
              disabled={false}
              loading={false}
              type="submit"
            >
              <button
                className="main green buttonOffset"
                disabled={false}
                type="submit"
              >
                Продолжить
              </button>
            </Button>
          </FormSpy>
          <Link
            className="register"
            to="/e_zone/login"
          >
            <a
              className="register"
              href="/e_zone/login"
            >
              Отменить
            </a>
          </Link>
        </form>
      </ReactFinalForm>
    </ConfirmStage>
  </RecoverLogin>
</Provider>
`;

exports[`Тестирование RecoverLogin Тестируем рендер RecoverLogin INPUT-STAGE 1`] = `
<Provider
  store={
    Object {
      "dispatch": [Function],
      "getState": [Function],
      "replaceReducer": [Function],
      "subscribe": [Function],
      Symbol(observable): [Function],
    }
  }
>
  <RecoverLogin>
    <InputStage
      setStep={[Function]}
    >
      <ReactFinalForm
        onSubmit={[Function]}
        render={[Function]}
        subscription={
          Object {
            "submitting": true,
          }
        }
        validate={[Function]}
      >
        <form
          className="form"
          onSubmit={[Function]}
        >
          <h3
            className="formTitle"
          >
            Восстановление логина
          </h3>
          <p
            className="formText"
          >
            На введенный email придет код подтверждения
          </p>
          <FormSpy
            render={[Function]}
          >
            <ForwardRef(Field)
              component={[Function]}
              disabled={false}
              id="email-input"
              inputRef={
                Object {
                  "current": <input
                    class="input"
                    id="email-input"
                    placeholder="Введите email"
                    type="text"
                    value=""
                  />,
                }
              }
              label="Ваш email:"
              name="email"
              placeholder="Введите email"
            >
              <LabeledInput
                disabled={false}
                id="email-input"
                input={
                  Object {
                    "checked": undefined,
                    "name": "email",
                    "onBlur": [Function],
                    "onChange": [Function],
                    "onFocus": [Function],
                    "value": "",
                  }
                }
                inputRef={
                  Object {
                    "current": <input
                      class="input"
                      id="email-input"
                      placeholder="Введите email"
                      type="text"
                      value=""
                    />,
                  }
                }
                label="Ваш email:"
                meta={
                  Object {
                    "active": false,
                    "data": Object {},
                    "dirty": false,
                    "dirtySinceLastSubmit": false,
                    "error": "Необходимо указать email",
                    "initial": undefined,
                    "invalid": true,
                    "length": undefined,
                    "modified": false,
                    "modifiedSinceLastSubmit": false,
                    "pristine": true,
                    "submitError": undefined,
                    "submitFailed": false,
                    "submitSucceeded": false,
                    "submitting": false,
                    "touched": false,
                    "valid": false,
                    "validating": false,
                    "visited": false,
                  }
                }
                placeholder="Введите email"
                type="text"
              >
                <div
                  className="wrapper"
                >
                  <label
                    className="label"
                    htmlFor="email-input"
                  >
                    Ваш email:
                  </label>
                  <input
                    className="input"
                    disabled={false}
                    id="email-input"
                    onBlur={[Function]}
                    onChange={[Function]}
                    onFocus={[Function]}
                    placeholder="Введите email"
                    type="text"
                    value=""
                  />
                </div>
              </LabeledInput>
            </ForwardRef(Field)>
          </FormSpy>
          <FormSpy
            render={[Function]}
            subscription={
              Object {
                "errors": true,
                "pristine": true,
                "submitting": true,
              }
            }
          >
            <Button
              className="buttonOffset"
              colorScheme="green"
              disabled={true}
              loading={false}
              type="submit"
            >
              <button
                className="main green buttonOffset"
                disabled={true}
                type="submit"
              >
                Продолжить
              </button>
            </Button>
          </FormSpy>
          <Link
            className="register"
            to="/e_zone/login"
          >
            <a
              className="register"
              href="/e_zone/login"
            >
              Отменить
            </a>
          </Link>
        </form>
      </ReactFinalForm>
    </InputStage>
  </RecoverLogin>
</Provider>
`;

exports[`Тестирование RecoverLogin Тестируем рендер RecoverLogin INPUT-STAGE 2`] = `
<Provider
  store={
    Object {
      "dispatch": [Function],
      "getState": [Function],
      "replaceReducer": [Function],
      "subscribe": [Function],
      Symbol(observable): [Function],
    }
  }
>
  <RecoverLogin>
    <InputStage
      setStep={[Function]}
    >
      <ReactFinalForm
        onSubmit={[Function]}
        render={[Function]}
        subscription={
          Object {
            "submitting": true,
          }
        }
        validate={[Function]}
      >
        <form
          className="form"
          onSubmit={[Function]}
        >
          <h3
            className="formTitle"
          >
            Восстановление логина
          </h3>
          <p
            className="formText"
          >
            На введенный email придет код подтверждения
          </p>
          <FormSpy
            render={[Function]}
          >
            <ForwardRef(Field)
              component={[Function]}
              disabled={false}
              id="email-input"
              inputRef={
                Object {
                  "current": <input
                    class="input"
                    id="email-input"
                    placeholder="Введите email"
                    type="text"
                    value="testEmail"
                  />,
                }
              }
              label="Ваш email:"
              name="email"
              placeholder="Введите email"
            >
              <LabeledInput
                disabled={false}
                id="email-input"
                input={
                  Object {
                    "checked": undefined,
                    "name": "email",
                    "onBlur": [Function],
                    "onChange": [Function],
                    "onFocus": [Function],
                    "value": "testEmail",
                  }
                }
                inputRef={
                  Object {
                    "current": <input
                      class="input"
                      id="email-input"
                      placeholder="Введите email"
                      type="text"
                      value="testEmail"
                    />,
                  }
                }
                label="Ваш email:"
                meta={
                  Object {
                    "active": false,
                    "data": Object {},
                    "dirty": true,
                    "dirtySinceLastSubmit": false,
                    "error": undefined,
                    "initial": undefined,
                    "invalid": false,
                    "length": undefined,
                    "modified": true,
                    "modifiedSinceLastSubmit": false,
                    "pristine": false,
                    "submitError": undefined,
                    "submitFailed": false,
                    "submitSucceeded": false,
                    "submitting": false,
                    "touched": false,
                    "valid": true,
                    "validating": false,
                    "visited": false,
                  }
                }
                placeholder="Введите email"
                type="text"
              >
                <div
                  className="wrapper"
                >
                  <label
                    className="label"
                    htmlFor="email-input"
                  >
                    Ваш email:
                  </label>
                  <input
                    className="input"
                    disabled={false}
                    id="email-input"
                    onBlur={[Function]}
                    onChange={[Function]}
                    onFocus={[Function]}
                    placeholder="Введите email"
                    type="text"
                    value="testEmail"
                  />
                </div>
              </LabeledInput>
            </ForwardRef(Field)>
          </FormSpy>
          <FormSpy
            render={[Function]}
            subscription={
              Object {
                "errors": true,
                "pristine": true,
                "submitting": true,
              }
            }
          >
            <Button
              className="buttonOffset"
              colorScheme="green"
              disabled={false}
              loading={false}
              type="submit"
            >
              <button
                className="main green buttonOffset"
                disabled={false}
                type="submit"
              >
                Продолжить
              </button>
            </Button>
          </FormSpy>
          <Link
            className="register"
            to="/e_zone/login"
          >
            <a
              className="register"
              href="/e_zone/login"
            >
              Отменить
            </a>
          </Link>
        </form>
      </ReactFinalForm>
    </InputStage>
  </RecoverLogin>
</Provider>
`;

exports[`Тестирование RecoverLogin Тестируем рендер RecoverLogin INPUT-STAGE 3`] = `
<Provider
  store={
    Object {
      "dispatch": [Function],
      "getState": [Function],
      "replaceReducer": [Function],
      "subscribe": [Function],
      Symbol(observable): [Function],
    }
  }
>
  <RecoverLogin>
    <InputStage
      setStep={[Function]}
    >
      <ReactFinalForm
        onSubmit={[Function]}
        render={[Function]}
        subscription={
          Object {
            "submitting": true,
          }
        }
        validate={[Function]}
      >
        <form
          className="form"
          onSubmit={[Function]}
        >
          <h3
            className="formTitle"
          >
            Восстановление логина
          </h3>
          <p
            className="formText"
          >
            На введенный email придет код подтверждения
          </p>
          <FormSpy
            render={[Function]}
          >
            <ForwardRef(Field)
              component={[Function]}
              disabled={true}
              id="email-input"
              inputRef={
                Object {
                  "current": <input
                    class="input"
                    disabled=""
                    id="email-input"
                    placeholder="Введите email"
                    type="text"
                    value="testEmail"
                  />,
                }
              }
              label="Ваш email:"
              name="email"
              placeholder="Введите email"
            >
              <LabeledInput
                disabled={true}
                id="email-input"
                input={
                  Object {
                    "checked": undefined,
                    "name": "email",
                    "onBlur": [Function],
                    "onChange": [Function],
                    "onFocus": [Function],
                    "value": "testEmail",
                  }
                }
                inputRef={
                  Object {
                    "current": <input
                      class="input"
                      disabled=""
                      id="email-input"
                      placeholder="Введите email"
                      type="text"
                      value="testEmail"
                    />,
                  }
                }
                label="Ваш email:"
                meta={
                  Object {
                    "active": false,
                    "data": Object {},
                    "dirty": true,
                    "dirtySinceLastSubmit": false,
                    "error": undefined,
                    "initial": undefined,
                    "invalid": false,
                    "length": undefined,
                    "modified": true,
                    "modifiedSinceLastSubmit": false,
                    "pristine": false,
                    "submitError": undefined,
                    "submitFailed": false,
                    "submitSucceeded": false,
                    "submitting": true,
                    "touched": false,
                    "valid": true,
                    "validating": false,
                    "visited": false,
                  }
                }
                placeholder="Введите email"
                type="text"
              >
                <div
                  className="wrapper"
                >
                  <label
                    className="label"
                    htmlFor="email-input"
                  >
                    Ваш email:
                  </label>
                  <input
                    className="input"
                    disabled={true}
                    id="email-input"
                    onBlur={[Function]}
                    onChange={[Function]}
                    onFocus={[Function]}
                    placeholder="Введите email"
                    type="text"
                    value="testEmail"
                  />
                </div>
              </LabeledInput>
            </ForwardRef(Field)>
          </FormSpy>
          <FormSpy
            render={[Function]}
            subscription={
              Object {
                "errors": true,
                "pristine": true,
                "submitting": true,
              }
            }
          >
            <Button
              className="buttonOffset"
              colorScheme="green"
              disabled={true}
              loading={true}
              type="submit"
            >
              <button
                className="main green buttonOffset"
                disabled={true}
                type="submit"
              >
                <span
                  className="spinner"
                >
                  <img
                    alt="loading"
                    src="FILE_MOCK"
                  />
                </span>
              </button>
            </Button>
          </FormSpy>
          <Link
            className="register"
            to="/e_zone/login"
          >
            <a
              className="register"
              href="/e_zone/login"
            >
              Отменить
            </a>
          </Link>
        </form>
      </ReactFinalForm>
    </InputStage>
  </RecoverLogin>
</Provider>
`;

exports[`Тестирование RecoverLogin Тестируем рендер RecoverLogin INPUT-STAGE 4`] = `
<Provider
  store={
    Object {
      "dispatch": [Function],
      "getState": [Function],
      "replaceReducer": [Function],
      "subscribe": [Function],
      Symbol(observable): [Function],
    }
  }
>
  <RecoverLogin>
    <ConfirmStage
      setStep={[Function]}
    >
      <ReactFinalForm
        onSubmit={[Function]}
        render={[Function]}
        subscription={
          Object {
            "submitting": true,
          }
        }
        validate={[Function]}
      >
        <form
          className="form"
          onSubmit={[Function]}
        >
          <h3
            className="formTitle"
          >
            Подтверждение
          </h3>
          <p
            className="formText"
          >
            Проверьте почту и введите код подтверждения
          </p>
          <FormSpy
            render={[Function]}
          >
            <ForwardRef(Field)
              component={[Function]}
              disabled={false}
              id="code-input"
              inputRef={
                Object {
                  "current": <input
                    class="input"
                    id="code-input"
                    placeholder="Введите код"
                    type="number"
                    value=""
                  />,
                }
              }
              label="Код:"
              name="code"
              placeholder="Введите код"
              type="number"
            >
              <LabeledInput
                disabled={false}
                id="code-input"
                input={
                  Object {
                    "checked": undefined,
                    "name": "code",
                    "onBlur": [Function],
                    "onChange": [Function],
                    "onFocus": [Function],
                    "type": "number",
                    "value": "",
                  }
                }
                inputRef={
                  Object {
                    "current": <input
                      class="input"
                      id="code-input"
                      placeholder="Введите код"
                      type="number"
                      value=""
                    />,
                  }
                }
                label="Код:"
                meta={
                  Object {
                    "active": false,
                    "data": Object {},
                    "dirty": false,
                    "dirtySinceLastSubmit": false,
                    "error": "Укажите проверочный код",
                    "initial": undefined,
                    "invalid": true,
                    "length": undefined,
                    "modified": false,
                    "modifiedSinceLastSubmit": false,
                    "pristine": true,
                    "submitError": undefined,
                    "submitFailed": false,
                    "submitSucceeded": false,
                    "submitting": false,
                    "touched": false,
                    "valid": false,
                    "validating": false,
                    "visited": false,
                  }
                }
                placeholder="Введите код"
                type="text"
              >
                <div
                  className="wrapper"
                >
                  <label
                    className="label"
                    htmlFor="code-input"
                  >
                    Код:
                  </label>
                  <input
                    className="input"
                    disabled={false}
                    id="code-input"
                    onBlur={[Function]}
                    onChange={[Function]}
                    onFocus={[Function]}
                    placeholder="Введите код"
                    type="number"
                    value=""
                  />
                </div>
              </LabeledInput>
            </ForwardRef(Field)>
          </FormSpy>
          <FormSpy
            render={[Function]}
            subscription={
              Object {
                "errors": true,
                "pristine": true,
                "submitting": true,
              }
            }
          >
            <Button
              className="buttonOffset"
              colorScheme="green"
              disabled={true}
              loading={false}
              type="submit"
            >
              <button
                className="main green buttonOffset"
                disabled={true}
                type="submit"
              >
                Продолжить
              </button>
            </Button>
          </FormSpy>
          <Link
            className="register"
            to="/e_zone/login"
          >
            <a
              className="register"
              href="/e_zone/login"
            >
              Отменить
            </a>
          </Link>
        </form>
      </ReactFinalForm>
    </ConfirmStage>
  </RecoverLogin>
</Provider>
`;
